^C:\USERS\LTA12\SOURCE\REPOS\백준\1057_토너먼트\1057.CPP
C:\USERS\LTA12\SOURCE\REPOS\백준\1057_토너먼트\DEBUG\VC142.PDB
C:\USERS\LTA12\SOURCE\REPOS\백준\1057_토너먼트\DEBUG\VC142.IDB
C:\USERS\LTA12\SOURCE\REPOS\백준\1057_토너먼트\DEBUG\1057.OBJ
