^C:\USERS\LTA12\SOURCE\REPOS\백준\1057_토너먼트\DEBUG\1057.OBJ
C:\USERS\LTA12\SOURCE\REPOS\백준\DEBUG\1057_토너먼트.EXE
C:\USERS\LTA12\SOURCE\REPOS\백준\DEBUG\1057_토너먼트.ILK
C:\USERS\LTA12\SOURCE\REPOS\백준\DEBUG\1057_토너먼트.PDB
