^C:\USERS\LTA12\SOURCE\REPOS\백준\3003_킹퀸루비숍\DEBUG\3003.OBJ
C:\USERS\LTA12\SOURCE\REPOS\백준\DEBUG\3003_킹퀸루비숍.EXE
C:\USERS\LTA12\SOURCE\REPOS\백준\DEBUG\3003_킹퀸루비숍.ILK
C:\USERS\LTA12\SOURCE\REPOS\백준\DEBUG\3003_킹퀸루비숍.PDB
