^D:\알고리즘공부\C++\알고리즘_백준\REPOS\백준\8741_이진수합\DEBUG\8741.OBJ
D:\알고리즘공부\C++\알고리즘_백준\REPOS\백준\DEBUG\8741_이진수합.EXE
D:\알고리즘공부\C++\알고리즘_백준\REPOS\백준\DEBUG\8741_이진수합.ILK
D:\알고리즘공부\C++\알고리즘_백준\REPOS\백준\DEBUG\8741_이진수합.PDB
