^C:\USERS\LTA12\SOURCE\REPOS\백준\1049_기타줄\1049.CPP
C:\USERS\LTA12\SOURCE\REPOS\백준\1049_기타줄\DEBUG\VC142.PDB
C:\USERS\LTA12\SOURCE\REPOS\백준\1049_기타줄\DEBUG\VC142.IDB
C:\USERS\LTA12\SOURCE\REPOS\백준\1049_기타줄\DEBUG\1049.OBJ
