^C:\USERS\LTA12\SOURCE\REPOS\백준\5086_배수와약수\DEBUG\5086.OBJ
C:\USERS\LTA12\SOURCE\REPOS\백준\DEBUG\5086_배수와약수.ILK
C:\USERS\LTA12\SOURCE\REPOS\백준\DEBUG\5086_배수와약수.EXE
C:\USERS\LTA12\SOURCE\REPOS\백준\DEBUG\5086_배수와약수.PDB
