^C:\USERS\LTA12\SOURCE\REPOS\백준\1037_약수\1037.CPP
C:\USERS\LTA12\SOURCE\REPOS\백준\1037_약수\DEBUG\VC142.PDB
C:\USERS\LTA12\SOURCE\REPOS\백준\1037_약수\DEBUG\VC142.IDB
C:\USERS\LTA12\SOURCE\REPOS\백준\1037_약수\DEBUG\1037.OBJ
