^D:\알고리즘공부\C++\알고리즘_백준\REPOS\백준\11718_그대로출력하기\11718.CPP
D:\알고리즘공부\C++\알고리즘_백준\REPOS\백준\11718_그대로출력하기\DEBUG\VC142.PDB
D:\알고리즘공부\C++\알고리즘_백준\REPOS\백준\11718_그대로출력하기\DEBUG\VC142.IDB
D:\알고리즘공부\C++\알고리즘_백준\REPOS\백준\11718_그대로출력하기\DEBUG\11718.OBJ
