^C:\USERS\LTA12\SOURCE\REPOS\백준\10804_카드역배치\10804.CPP
C:\USERS\LTA12\SOURCE\REPOS\백준\10804_카드역배치\DEBUG\VC142.PDB
C:\USERS\LTA12\SOURCE\REPOS\백준\10804_카드역배치\DEBUG\VC142.IDB
C:\USERS\LTA12\SOURCE\REPOS\백준\10804_카드역배치\DEBUG\10804.OBJ
