^C:\USERS\LTA12\SOURCE\REPOS\백준\10804_카드역배치\DEBUG\10804.OBJ
C:\USERS\LTA12\SOURCE\REPOS\백준\DEBUG\10804_카드역배치.EXE
C:\USERS\LTA12\SOURCE\REPOS\백준\DEBUG\10804_카드역배치.ILK
C:\USERS\LTA12\SOURCE\REPOS\백준\DEBUG\10804_카드역배치.PDB
