^C:\USERS\LTA12\SOURCE\REPOS\백준\13300_방배정\13300.CPP
C:\USERS\LTA12\SOURCE\REPOS\백준\13300_방배정\DEBUG\VC142.PDB
C:\USERS\LTA12\SOURCE\REPOS\백준\13300_방배정\DEBUG\VC142.IDB
C:\USERS\LTA12\SOURCE\REPOS\백준\13300_방배정\DEBUG\13300.OBJ
