^C:\USERS\LTA12\SOURCE\REPOS\백준\9316_HELLOJUDGE\9316.CPP
C:\USERS\LTA12\SOURCE\REPOS\백준\9316_HELLOJUDGE\DEBUG\VC142.PDB
C:\USERS\LTA12\SOURCE\REPOS\백준\9316_HELLOJUDGE\DEBUG\VC142.IDB
C:\USERS\LTA12\SOURCE\REPOS\백준\9316_HELLOJUDGE\DEBUG\9316.OBJ
