^C:\USERS\LTA12\SOURCE\REPOS\백준\6679_싱기한네자리숫자\DEBUG\6679.OBJ
C:\USERS\LTA12\SOURCE\REPOS\백준\DEBUG\6679_싱기한네자리숫자.EXE
C:\USERS\LTA12\SOURCE\REPOS\백준\DEBUG\6679_싱기한네자리숫자.ILK
C:\USERS\LTA12\SOURCE\REPOS\백준\DEBUG\6679_싱기한네자리숫자.PDB
