^D:\알고리즘공부\C++\알고리즘_백준\REPOS\백준\17825_주사위윷놀이\DEBUG\MAIN.OBJ
D:\알고리즘공부\C++\알고리즘_백준\REPOS\백준\DEBUG\17825_주사위윷놀이.EXE
D:\알고리즘공부\C++\알고리즘_백준\REPOS\백준\DEBUG\17825_주사위윷놀이.ILK
D:\알고리즘공부\C++\알고리즘_백준\REPOS\백준\DEBUG\17825_주사위윷놀이.PDB
