^C:\USERS\LTA12\SOURCE\REPOS\백준\5339_콜센터\5339.CPP
C:\USERS\LTA12\SOURCE\REPOS\백준\5339_콜센터\DEBUG\VC142.PDB
C:\USERS\LTA12\SOURCE\REPOS\백준\5339_콜센터\DEBUG\VC142.IDB
C:\USERS\LTA12\SOURCE\REPOS\백준\5339_콜센터\DEBUG\5339.OBJ
