^C:\USERS\LTA12\SOURCE\REPOS\백준\10156_과자\10156.CPP
C:\USERS\LTA12\SOURCE\REPOS\백준\10156_과자\DEBUG\VC142.PDB
C:\USERS\LTA12\SOURCE\REPOS\백준\10156_과자\DEBUG\VC142.IDB
C:\USERS\LTA12\SOURCE\REPOS\백준\10156_과자\DEBUG\10156.OBJ
