^C:\USERS\LTA12\SOURCE\REPOS\백준\15727_조별과제를하려는데\DEBUG\15727.OBJ
C:\USERS\LTA12\SOURCE\REPOS\백준\DEBUG\15727_조별과제를하려는데.EXE
C:\USERS\LTA12\SOURCE\REPOS\백준\DEBUG\15727_조별과제를하려는데.ILK
C:\USERS\LTA12\SOURCE\REPOS\백준\DEBUG\15727_조별과제를하려는데.PDB
