^C:\USERS\LTA12\SOURCE\REPOS\백준\8958_OX퀴즈\DEBUG\8958.OBJ
C:\USERS\LTA12\SOURCE\REPOS\백준\DEBUG\8958_OX퀴즈.EXE
C:\USERS\LTA12\SOURCE\REPOS\백준\DEBUG\8958_OX퀴즈.ILK
C:\USERS\LTA12\SOURCE\REPOS\백준\DEBUG\8958_OX퀴즈.PDB
