^C:\USERS\LTA12\SOURCE\REPOS\백준\11382_꼬마정민\11382.CPP
C:\USERS\LTA12\SOURCE\REPOS\백준\11382_꼬마정민\DEBUG\VC142.PDB
C:\USERS\LTA12\SOURCE\REPOS\백준\11382_꼬마정민\DEBUG\VC142.IDB
C:\USERS\LTA12\SOURCE\REPOS\백준\11382_꼬마정민\DEBUG\11382.OBJ
