^D:\알고리즘공부\C++\알고리즘_백준\REPOS\백준\9295_주사위\DEBUG\MAIN.OBJ
D:\알고리즘공부\C++\알고리즘_백준\REPOS\백준\DEBUG\9295_주사위.ILK
D:\알고리즘공부\C++\알고리즘_백준\REPOS\백준\DEBUG\9295_주사위.EXE
D:\알고리즘공부\C++\알고리즘_백준\REPOS\백준\DEBUG\9295_주사위.PDB
