^C:\USERS\LTA12\SOURCE\REPOS\백준\10813_공바꾸기\DEBUG\10813.OBJ
C:\USERS\LTA12\SOURCE\REPOS\백준\DEBUG\10813_공바꾸기.ILK
C:\USERS\LTA12\SOURCE\REPOS\백준\DEBUG\10813_공바꾸기.EXE
C:\USERS\LTA12\SOURCE\REPOS\백준\DEBUG\10813_공바꾸기.PDB
