^C:\USERS\LTA12\SOURCE\REPOS\백준\2605_줄세우기\DEBUG\2605.OBJ
C:\USERS\LTA12\SOURCE\REPOS\백준\DEBUG\2605_줄세우기.EXE
C:\USERS\LTA12\SOURCE\REPOS\백준\DEBUG\2605_줄세우기.ILK
C:\USERS\LTA12\SOURCE\REPOS\백준\DEBUG\2605_줄세우기.PDB
