^C:\USERS\LTA12\SOURCE\REPOS\백준\3062_수뒤집기\DEBUG\3062.OBJ
C:\USERS\LTA12\SOURCE\REPOS\백준\DEBUG\3062_수뒤집기.ILK
C:\USERS\LTA12\SOURCE\REPOS\백준\DEBUG\3062_수뒤집기.EXE
C:\USERS\LTA12\SOURCE\REPOS\백준\DEBUG\3062_수뒤집기.PDB
