^C:\USERS\LTA12\SOURCE\REPOS\백준\3034_앵그리창영\DEBUG\3034.OBJ
C:\USERS\LTA12\SOURCE\REPOS\백준\DEBUG\3034_앵그리창영.ILK
C:\USERS\LTA12\SOURCE\REPOS\백준\DEBUG\3034_앵그리창영.EXE
C:\USERS\LTA12\SOURCE\REPOS\백준\DEBUG\3034_앵그리창영.PDB
