^D:\알고리즘공부\C++\알고리즘_백준\REPOS\백준\6378_디지털루트\6378.CPP
D:\알고리즘공부\C++\알고리즘_백준\REPOS\백준\6378_디지털루트\DEBUG\VC142.PDB
D:\알고리즘공부\C++\알고리즘_백준\REPOS\백준\6378_디지털루트\DEBUG\VC142.IDB
D:\알고리즘공부\C++\알고리즘_백준\REPOS\백준\6378_디지털루트\DEBUG\6378.OBJ
