^C:\USERS\LTA12\SOURCE\REPOS\백준\9506_약수들의합\9506.CPP
C:\USERS\LTA12\SOURCE\REPOS\백준\9506_약수들의합\DEBUG\VC142.PDB
C:\USERS\LTA12\SOURCE\REPOS\백준\9506_약수들의합\DEBUG\VC142.IDB
C:\USERS\LTA12\SOURCE\REPOS\백준\9506_약수들의합\DEBUG\9506.OBJ
