^C:\USERS\LTA12\SOURCE\REPOS\백준\1568_새\1568.CPP
C:\USERS\LTA12\SOURCE\REPOS\백준\1568_새\DEBUG\VC142.PDB
C:\USERS\LTA12\SOURCE\REPOS\백준\1568_새\DEBUG\VC142.IDB
C:\USERS\LTA12\SOURCE\REPOS\백준\1568_새\DEBUG\1568.OBJ
