^C:\USERS\LTA12\SOURCE\REPOS\백준\1267_핸드폰요금\DEBUG\1267.OBJ
C:\USERS\LTA12\SOURCE\REPOS\백준\DEBUG\1267_핸드폰요금.EXE
C:\USERS\LTA12\SOURCE\REPOS\백준\DEBUG\1267_핸드폰요금.ILK
C:\USERS\LTA12\SOURCE\REPOS\백준\DEBUG\1267_핸드폰요금.PDB
