^C:\USERS\LTA12\SOURCE\REPOS\백준\11720_숫자의합\11720.CPP
C:\USERS\LTA12\SOURCE\REPOS\백준\11720_숫자의합\DEBUG\VC142.PDB
C:\USERS\LTA12\SOURCE\REPOS\백준\11720_숫자의합\DEBUG\VC142.IDB
C:\USERS\LTA12\SOURCE\REPOS\백준\11720_숫자의합\DEBUG\11720.OBJ
