^D:\알고리즘공부\C++\알고리즘_백준\REPOS\백준\10409_서버\DEBUG\10409.OBJ
D:\알고리즘공부\C++\알고리즘_백준\REPOS\백준\DEBUG\10409_서버.EXE
D:\알고리즘공부\C++\알고리즘_백준\REPOS\백준\DEBUG\10409_서버.ILK
D:\알고리즘공부\C++\알고리즘_백준\REPOS\백준\DEBUG\10409_서버.PDB
