^C:\USERS\LTA12\SOURCE\REPOS\백준\10797_10부제\10797.CPP
C:\USERS\LTA12\SOURCE\REPOS\백준\10797_10부제\DEBUG\VC142.PDB
C:\USERS\LTA12\SOURCE\REPOS\백준\10797_10부제\DEBUG\VC142.IDB
C:\USERS\LTA12\SOURCE\REPOS\백준\10797_10부제\DEBUG\10797.OBJ
