^C:\USERS\LTA12\SOURCE\REPOS\백준\10164_격사장의경로\10164.CPP
C:\USERS\LTA12\SOURCE\REPOS\백준\10164_격사장의경로\DEBUG\VC142.PDB
C:\USERS\LTA12\SOURCE\REPOS\백준\10164_격사장의경로\DEBUG\VC142.IDB
C:\USERS\LTA12\SOURCE\REPOS\백준\10164_격사장의경로\DEBUG\10164.OBJ
