^C:\USERS\LTA12\SOURCE\REPOS\백준\10164_격사장의경로\DEBUG\10164.OBJ
C:\USERS\LTA12\SOURCE\REPOS\백준\DEBUG\10164_격사장의경로.EXE
C:\USERS\LTA12\SOURCE\REPOS\백준\DEBUG\10164_격사장의경로.ILK
C:\USERS\LTA12\SOURCE\REPOS\백준\DEBUG\10164_격사장의경로.PDB
