^C:\USERS\LTA12\SOURCE\REPOS\백준\16394_홍익대학교\DEBUG\16394.OBJ
C:\USERS\LTA12\SOURCE\REPOS\백준\DEBUG\16394_홍익대학교.ILK
C:\USERS\LTA12\SOURCE\REPOS\백준\DEBUG\16394_홍익대학교.EXE
C:\USERS\LTA12\SOURCE\REPOS\백준\DEBUG\16394_홍익대학교.PDB
