^D:\알고리즘공부\C++\알고리즘_백준\REPOS\백준\17140_이차원배열과연산\MAIN.CPP
D:\알고리즘공부\C++\알고리즘_백준\REPOS\백준\17140_이차원배열과연산\DEBUG\VC142.PDB
D:\알고리즘공부\C++\알고리즘_백준\REPOS\백준\17140_이차원배열과연산\DEBUG\VC142.IDB
D:\알고리즘공부\C++\알고리즘_백준\REPOS\백준\17140_이차원배열과연산\DEBUG\MAIN.OBJ
