^C:\USERS\LTA12\SOURCE\REPOS\백준\2460_지능형기차2\DEBUG\2460.OBJ
C:\USERS\LTA12\SOURCE\REPOS\백준\DEBUG\2460_지능형기차2.ILK
C:\USERS\LTA12\SOURCE\REPOS\백준\DEBUG\2460_지능형기차2.EXE
C:\USERS\LTA12\SOURCE\REPOS\백준\DEBUG\2460_지능형기차2.PDB
