^C:\USERS\LTA12\SOURCE\REPOS\백준\2745_진법변환\2745.CPP
C:\USERS\LTA12\SOURCE\REPOS\백준\2745_진법변환\DEBUG\VC142.PDB
C:\USERS\LTA12\SOURCE\REPOS\백준\2745_진법변환\DEBUG\VC142.IDB
C:\USERS\LTA12\SOURCE\REPOS\백준\2745_진법변환\DEBUG\2745.OBJ
