^C:\USERS\LTA12\SOURCE\REPOS\백준\2720_세탁소사장\2720.CPP
C:\USERS\LTA12\SOURCE\REPOS\백준\2720_세탁소사장\DEBUG\VC142.PDB
C:\USERS\LTA12\SOURCE\REPOS\백준\2720_세탁소사장\DEBUG\VC142.IDB
C:\USERS\LTA12\SOURCE\REPOS\백준\2720_세탁소사장\DEBUG\2720.OBJ
