^D:\알고리즘공부\C++\알고리즘_백준\REPOS\백준\3004_체스판조각\3004.CPP
D:\알고리즘공부\C++\알고리즘_백준\REPOS\백준\3004_체스판조각\DEBUG\VC142.PDB
D:\알고리즘공부\C++\알고리즘_백준\REPOS\백준\3004_체스판조각\DEBUG\VC142.IDB
D:\알고리즘공부\C++\알고리즘_백준\REPOS\백준\3004_체스판조각\DEBUG\3004.OBJ
