^C:\USERS\LTA12\SOURCE\REPOS\백준\2563_색종이\DEBUG\2563.OBJ
C:\USERS\LTA12\SOURCE\REPOS\백준\DEBUG\2563_색종이.ILK
C:\USERS\LTA12\SOURCE\REPOS\백준\DEBUG\2563_색종이.EXE
C:\USERS\LTA12\SOURCE\REPOS\백준\DEBUG\2563_색종이.PDB
