^C:\USERS\LTA12\SOURCE\REPOS\백준\11050_이항계수\DEBUG\11050.OBJ
C:\USERS\LTA12\SOURCE\REPOS\백준\DEBUG\11050_이항계수.EXE
C:\USERS\LTA12\SOURCE\REPOS\백준\DEBUG\11050_이항계수.ILK
C:\USERS\LTA12\SOURCE\REPOS\백준\DEBUG\11050_이항계수.PDB
