^C:\USERS\LTA12\SOURCE\REPOS\백준\1259_팰린드롬수\1259.CPP
C:\USERS\LTA12\SOURCE\REPOS\백준\1259_팰린드롬수\DEBUG\VC142.PDB
C:\USERS\LTA12\SOURCE\REPOS\백준\1259_팰린드롬수\DEBUG\VC142.IDB
C:\USERS\LTA12\SOURCE\REPOS\백준\1259_팰린드롬수\DEBUG\1259.OBJ
