^C:\USERS\LTA12\SOURCE\REPOS\백준\2523_별찍기-13\2523.CPP
C:\USERS\LTA12\SOURCE\REPOS\백준\2523_별찍기-13\DEBUG\VC142.PDB
C:\USERS\LTA12\SOURCE\REPOS\백준\2523_별찍기-13\DEBUG\VC142.IDB
C:\USERS\LTA12\SOURCE\REPOS\백준\2523_별찍기-13\DEBUG\2523.OBJ
