^C:\USERS\LTA12\SOURCE\REPOS\백준\2309_일곱난쟁이\2309.CPP
C:\USERS\LTA12\SOURCE\REPOS\백준\2309_일곱난쟁이\DEBUG\VC142.PDB
C:\USERS\LTA12\SOURCE\REPOS\백준\2309_일곱난쟁이\DEBUG\VC142.IDB
C:\USERS\LTA12\SOURCE\REPOS\백준\2309_일곱난쟁이\DEBUG\2309.OBJ
