^C:\USERS\LTA12\SOURCE\REPOS\백준\2884_알람시계\DEBUG\2884.OBJ
C:\USERS\LTA12\SOURCE\REPOS\백준\DEBUG\2884_알람시계.EXE
C:\USERS\LTA12\SOURCE\REPOS\백준\DEBUG\2884_알람시계.ILK
C:\USERS\LTA12\SOURCE\REPOS\백준\DEBUG\2884_알람시계.PDB
