^D:\알고리즘공부\C++\알고리즘_백준\REPOS\백준\14503_로봇청소기\MAIN.CPP
D:\알고리즘공부\C++\알고리즘_백준\REPOS\백준\14503_로봇청소기\DEBUG\VC142.PDB
D:\알고리즘공부\C++\알고리즘_백준\REPOS\백준\14503_로봇청소기\DEBUG\VC142.IDB
D:\알고리즘공부\C++\알고리즘_백준\REPOS\백준\14503_로봇청소기\DEBUG\MAIN.OBJ
