^D:\알고리즘공부\C++\알고리즘_백준\REPOS\백준\16234_인구이동\MAIN.CPP
D:\알고리즘공부\C++\알고리즘_백준\REPOS\백준\16234_인구이동\DEBUG\VC142.PDB
D:\알고리즘공부\C++\알고리즘_백준\REPOS\백준\16234_인구이동\DEBUG\VC142.IDB
D:\알고리즘공부\C++\알고리즘_백준\REPOS\백준\16234_인구이동\DEBUG\MAIN.OBJ
