^D:\알고리즘공부\C++\알고리즘_백준\REPOS\백준\20056_마법사상어와파이어볼\DEBUG\MAIN.OBJ
D:\알고리즘공부\C++\알고리즘_백준\REPOS\백준\DEBUG\20056_마법사상어와파이어볼.EXE
D:\알고리즘공부\C++\알고리즘_백준\REPOS\백준\DEBUG\20056_마법사상어와파이어볼.ILK
D:\알고리즘공부\C++\알고리즘_백준\REPOS\백준\DEBUG\20056_마법사상어와파이어볼.PDB
