^C:\USERS\LTA12\SOURCE\REPOS\백준\5533_유니크\DEBUG\5533.OBJ
C:\USERS\LTA12\SOURCE\REPOS\백준\DEBUG\5533_유니크.EXE
C:\USERS\LTA12\SOURCE\REPOS\백준\DEBUG\5533_유니크.ILK
C:\USERS\LTA12\SOURCE\REPOS\백준\DEBUG\5533_유니크.PDB
