^C:\USERS\LTA12\SOURCE\REPOS\백준\2753_윤년\DEBUG\2753.OBJ
C:\USERS\LTA12\SOURCE\REPOS\백준\DEBUG\2753_윤년.ILK
C:\USERS\LTA12\SOURCE\REPOS\백준\DEBUG\2753_윤년.EXE
C:\USERS\LTA12\SOURCE\REPOS\백준\DEBUG\2753_윤년.PDB
