^C:\USERS\LTA12\SOURCE\REPOS\백준\14501_퇴사\14501.CPP
C:\USERS\LTA12\SOURCE\REPOS\백준\14501_퇴사\DEBUG\VC142.PDB
C:\USERS\LTA12\SOURCE\REPOS\백준\14501_퇴사\DEBUG\VC142.IDB
C:\USERS\LTA12\SOURCE\REPOS\백준\14501_퇴사\DEBUG\14501.OBJ
