^C:\USERS\LTA12\SOURCE\REPOS\백준\2743_단어길이재기\DEBUG\2743.OBJ
C:\USERS\LTA12\SOURCE\REPOS\백준\DEBUG\2743_단어길이재기.ILK
C:\USERS\LTA12\SOURCE\REPOS\백준\DEBUG\2743_단어길이재기.EXE
C:\USERS\LTA12\SOURCE\REPOS\백준\DEBUG\2743_단어길이재기.PDB
