^C:\USERS\LTA12\SOURCE\REPOS\백준\2869_달팽이는\2869.CPP
C:\USERS\LTA12\SOURCE\REPOS\백준\2869_달팽이는\DEBUG\VC142.PDB
C:\USERS\LTA12\SOURCE\REPOS\백준\2869_달팽이는\DEBUG\VC142.IDB
C:\USERS\LTA12\SOURCE\REPOS\백준\2869_달팽이는\DEBUG\2869.OBJ
