^C:\USERS\LTA12\SOURCE\REPOS\백준\11365_밀비급일\11365.CPP
C:\USERS\LTA12\SOURCE\REPOS\백준\11365_밀비급일\DEBUG\VC142.PDB
C:\USERS\LTA12\SOURCE\REPOS\백준\11365_밀비급일\DEBUG\VC142.IDB
C:\USERS\LTA12\SOURCE\REPOS\백준\11365_밀비급일\DEBUG\11365.OBJ
