^C:\USERS\LTA12\SOURCE\REPOS\백준\3460_이진수\3460.CPP
C:\USERS\LTA12\SOURCE\REPOS\백준\3460_이진수\DEBUG\VC142.PDB
C:\USERS\LTA12\SOURCE\REPOS\백준\3460_이진수\DEBUG\VC142.IDB
C:\USERS\LTA12\SOURCE\REPOS\백준\3460_이진수\DEBUG\3460.OBJ
