^C:\USERS\LTA12\SOURCE\REPOS\백준\14502_연구소\14502.CPP
C:\USERS\LTA12\SOURCE\REPOS\백준\14502_연구소\DEBUG\VC142.PDB
C:\USERS\LTA12\SOURCE\REPOS\백준\14502_연구소\DEBUG\VC142.IDB
C:\USERS\LTA12\SOURCE\REPOS\백준\14502_연구소\DEBUG\14502.OBJ
