^C:\USERS\LTA12\SOURCE\REPOS\백준\2420_사파리월드\2420.CPP
C:\USERS\LTA12\SOURCE\REPOS\백준\2420_사파리월드\DEBUG\VC142.PDB
C:\USERS\LTA12\SOURCE\REPOS\백준\2420_사파리월드\DEBUG\VC142.IDB
C:\USERS\LTA12\SOURCE\REPOS\백준\2420_사파리월드\DEBUG\2420.OBJ
