^C:\USERS\LTA12\SOURCE\REPOS\백준\1644_소수의연속합\DEBUG\1644.OBJ
C:\USERS\LTA12\SOURCE\REPOS\백준\DEBUG\1644_소수의연속합.EXE
C:\USERS\LTA12\SOURCE\REPOS\백준\DEBUG\1644_소수의연속합.ILK
C:\USERS\LTA12\SOURCE\REPOS\백준\DEBUG\1644_소수의연속합.PDB
