^C:\USERS\LTA12\SOURCE\REPOS\백준\1712_손익분기점\1712.CPP
C:\USERS\LTA12\SOURCE\REPOS\백준\1712_손익분기점\DEBUG\VC142.PDB
C:\USERS\LTA12\SOURCE\REPOS\백준\1712_손익분기점\DEBUG\VC142.IDB
C:\USERS\LTA12\SOURCE\REPOS\백준\1712_손익분기점\DEBUG\1712.OBJ
