^C:\USERS\LTA12\SOURCE\REPOS\백준\5522_카드게임\DEBUG\5522.OBJ
C:\USERS\LTA12\SOURCE\REPOS\백준\DEBUG\5522_카드게임.ILK
C:\USERS\LTA12\SOURCE\REPOS\백준\DEBUG\5522_카드게임.EXE
C:\USERS\LTA12\SOURCE\REPOS\백준\DEBUG\5522_카드게임.PDB
