^D:\알고리즘공부\C++\알고리즘_백준\REPOS\백준\1076_저항\DEBUG\1076.OBJ
D:\알고리즘공부\C++\알고리즘_백준\REPOS\백준\DEBUG\1076_저항.EXE
D:\알고리즘공부\C++\알고리즘_백준\REPOS\백준\DEBUG\1076_저항.ILK
D:\알고리즘공부\C++\알고리즘_백준\REPOS\백준\DEBUG\1076_저항.PDB
