^C:\USERS\LTA12\SOURCE\REPOS\백준\2914_저작권\DEBUG\2914.OBJ
C:\USERS\LTA12\SOURCE\REPOS\백준\DEBUG\2914_저작권.EXE
C:\USERS\LTA12\SOURCE\REPOS\백준\DEBUG\2914_저작권.ILK
C:\USERS\LTA12\SOURCE\REPOS\백준\DEBUG\2914_저작권.PDB
