^D:\알고리즘공부\C++\알고리즘_백준\REPOS\백준\12100_2048(EASY)\MAIN.CPP
D:\알고리즘공부\C++\알고리즘_백준\REPOS\백준\12100_2048(EASY)\DEBUG\VC142.PDB
D:\알고리즘공부\C++\알고리즘_백준\REPOS\백준\12100_2048(EASY)\DEBUG\VC142.IDB
D:\알고리즘공부\C++\알고리즘_백준\REPOS\백준\12100_2048(EASY)\DEBUG\MAIN.OBJ
