^C:\USERS\LTA12\SOURCE\REPOS\백준\5596_시험점수\DEBUG\5596.OBJ
C:\USERS\LTA12\SOURCE\REPOS\백준\DEBUG\5596_시험점수.ILK
C:\USERS\LTA12\SOURCE\REPOS\백준\DEBUG\5596_시험점수.EXE
C:\USERS\LTA12\SOURCE\REPOS\백준\DEBUG\5596_시험점수.PDB
