^C:\USERS\LTA12\SOURCE\REPOS\백준\1676_팩토리얼0의개수\1676.CPP
C:\USERS\LTA12\SOURCE\REPOS\백준\1676_팩토리얼0의개수\DEBUG\VC142.PDB
C:\USERS\LTA12\SOURCE\REPOS\백준\1676_팩토리얼0의개수\DEBUG\VC142.IDB
C:\USERS\LTA12\SOURCE\REPOS\백준\1676_팩토리얼0의개수\DEBUG\1676.OBJ
