^C:\USERS\LTA12\SOURCE\REPOS\백준\2476_주사위게임\2476.CPP
C:\USERS\LTA12\SOURCE\REPOS\백준\2476_주사위게임\DEBUG\VC142.PDB
C:\USERS\LTA12\SOURCE\REPOS\백준\2476_주사위게임\DEBUG\VC142.IDB
C:\USERS\LTA12\SOURCE\REPOS\백준\2476_주사위게임\DEBUG\2476.OBJ
