^C:\USERS\LTA12\SOURCE\REPOS\백준\1834_나머지와 몫이같은수\DEBUG\1834.OBJ
C:\USERS\LTA12\SOURCE\REPOS\백준\DEBUG\1834_나머지와 몫이같은수.EXE
C:\USERS\LTA12\SOURCE\REPOS\백준\DEBUG\1834_나머지와 몫이같은수.ILK
C:\USERS\LTA12\SOURCE\REPOS\백준\DEBUG\1834_나머지와 몫이같은수.PDB
